%YAML 1.1
%TAG !u! tag:unity3d.com,2011:
--- !u!221 &22100000
AnimatorOverrideController:
  m_ObjectHideFlags: 0
  m_PrefabParentObject: {fileID: 0}
  m_PrefabInternal: {fileID: 0}
  m_Name: Animator_interrupt_vert
  m_Controller: {fileID: 9100000, guid: f774c89d10a329d46a775dcc8aafe3b1, type: 2}
  m_Clips:
  - m_OriginalClip: {fileID: 7400000, guid: 6065aae0fda0012489c50818d37126d8, type: 2}
    m_OverrideClip: {fileID: 7400000, guid: 0bea446bcd6f43f45a285277624d810f, type: 2}
  - m_OriginalClip: {fileID: 7400000, guid: 91ef72316275f8c45af731a1dbb44698, type: 2}
    m_OverrideClip: {fileID: 7400000, guid: d377be77d93f3094c84118eabe8fed57, type: 2}
  - m_OriginalClip: {fileID: 7400000, guid: f0b005818957834458ee4b652e993add, type: 2}
    m_OverrideClip: {fileID: 7400000, guid: a07c68bf1f2b94b4da84bedf74d56588, type: 2}
  - m_OriginalClip: {fileID: 7400000, guid: ff1894f5fd7fa3a4db4ea8777580f4da, type: 2}
    m_OverrideClip: {fileID: 7400000, guid: 18c260eb9014d2745bdf2020498a1cc0, type: 2}
  - m_OriginalClip: {fileID: 7400000, guid: 74d12ca7f23b95143ba2e93bae257dca, type: 2}
    m_OverrideClip: {fileID: 7400000, guid: 919c08471678992418a0d199211ab6c2, type: 2}
  - m_OriginalClip: {fileID: 7400000, guid: 13dfd32f9adca374cb59bc7f37cbbb90, type: 2}
    m_OverrideClip: {fileID: 7400000, guid: f1074ccf0c335d647acbfcc03188fe33, type: 2}
  - m_OriginalClip: {fileID: 7400000, guid: 69936dff38237d241a2e44f14cae9a11, type: 2}
    m_OverrideClip: {fileID: 7400000, guid: 510facec40dee4e4cae0e6f2b684d376, type: 2}
