%YAML 1.1
%TAG !u! tag:unity3d.com,2011:
--- !u!114 &11400000
MonoBehaviour:
  m_ObjectHideFlags: 0
  m_PrefabParentObject: {fileID: 0}
  m_PrefabInternal: {fileID: 0}
  m_GameObject: {fileID: 0}
  m_Enabled: 1
  m_EditorHideFlags: 0
  m_Script: {fileID: 11500000, guid: 5da05a78e90b97043812b4f04d1969d7, type: 3}
  m_Name: FlowerRose
  m_EditorClassIdentifier: 
  _PointValue: 2
  type: 0
  icon: {fileID: 21300000, guid: f9691ec72332288499d9003dbb22fa51, type: 3}
  spawning:
  - {fileID: 21300000, guid: a22a777f91cb67e41b61bb4b582569b3, type: 3}
  - {fileID: 21300002, guid: a22a777f91cb67e41b61bb4b582569b3, type: 3}
  - {fileID: 21300004, guid: a22a777f91cb67e41b61bb4b582569b3, type: 3}
  - {fileID: 21300006, guid: a22a777f91cb67e41b61bb4b582569b3, type: 3}
  - {fileID: 21300008, guid: a22a777f91cb67e41b61bb4b582569b3, type: 3}
  - {fileID: 21300010, guid: a22a777f91cb67e41b61bb4b582569b3, type: 3}
  - {fileID: 21300012, guid: a22a777f91cb67e41b61bb4b582569b3, type: 3}
  - {fileID: 21300014, guid: a22a777f91cb67e41b61bb4b582569b3, type: 3}
  - {fileID: 21300016, guid: a22a777f91cb67e41b61bb4b582569b3, type: 3}
  - {fileID: 21300018, guid: a22a777f91cb67e41b61bb4b582569b3, type: 3}
  - {fileID: 21300020, guid: a22a777f91cb67e41b61bb4b582569b3, type: 3}
  - {fileID: 21300022, guid: a22a777f91cb67e41b61bb4b582569b3, type: 3}
  - {fileID: 21300024, guid: a22a777f91cb67e41b61bb4b582569b3, type: 3}
  - {fileID: 21300026, guid: a22a777f91cb67e41b61bb4b582569b3, type: 3}
  - {fileID: 21300028, guid: a22a777f91cb67e41b61bb4b582569b3, type: 3}
  - {fileID: 21300030, guid: a22a777f91cb67e41b61bb4b582569b3, type: 3}
  - {fileID: 21300032, guid: a22a777f91cb67e41b61bb4b582569b3, type: 3}
  - {fileID: 21300034, guid: a22a777f91cb67e41b61bb4b582569b3, type: 3}
  - {fileID: 21300036, guid: a22a777f91cb67e41b61bb4b582569b3, type: 3}
  - {fileID: 21300038, guid: a22a777f91cb67e41b61bb4b582569b3, type: 3}
  - {fileID: 21300040, guid: a22a777f91cb67e41b61bb4b582569b3, type: 3}
  - {fileID: 21300042, guid: a22a777f91cb67e41b61bb4b582569b3, type: 3}
  - {fileID: 21300044, guid: a22a777f91cb67e41b61bb4b582569b3, type: 3}
  - {fileID: 21300046, guid: a22a777f91cb67e41b61bb4b582569b3, type: 3}
  spawned:
  - {fileID: 21300000, guid: de7ca48a35ee8bc488e9fd500a156df6, type: 3}
  - {fileID: 21300002, guid: de7ca48a35ee8bc488e9fd500a156df6, type: 3}
  - {fileID: 21300004, guid: de7ca48a35ee8bc488e9fd500a156df6, type: 3}
  - {fileID: 21300006, guid: de7ca48a35ee8bc488e9fd500a156df6, type: 3}
  - {fileID: 21300008, guid: de7ca48a35ee8bc488e9fd500a156df6, type: 3}
  - {fileID: 21300010, guid: de7ca48a35ee8bc488e9fd500a156df6, type: 3}
  - {fileID: 21300012, guid: de7ca48a35ee8bc488e9fd500a156df6, type: 3}
  - {fileID: 21300014, guid: de7ca48a35ee8bc488e9fd500a156df6, type: 3}
  - {fileID: 21300016, guid: de7ca48a35ee8bc488e9fd500a156df6, type: 3}
  - {fileID: 21300018, guid: de7ca48a35ee8bc488e9fd500a156df6, type: 3}
  - {fileID: 21300020, guid: de7ca48a35ee8bc488e9fd500a156df6, type: 3}
  - {fileID: 21300022, guid: de7ca48a35ee8bc488e9fd500a156df6, type: 3}
  - {fileID: 21300024, guid: de7ca48a35ee8bc488e9fd500a156df6, type: 3}
  - {fileID: 21300026, guid: de7ca48a35ee8bc488e9fd500a156df6, type: 3}
  - {fileID: 21300028, guid: de7ca48a35ee8bc488e9fd500a156df6, type: 3}
  - {fileID: 21300030, guid: de7ca48a35ee8bc488e9fd500a156df6, type: 3}
  - {fileID: 21300032, guid: de7ca48a35ee8bc488e9fd500a156df6, type: 3}
  - {fileID: 21300034, guid: de7ca48a35ee8bc488e9fd500a156df6, type: 3}
  - {fileID: 21300036, guid: de7ca48a35ee8bc488e9fd500a156df6, type: 3}
  - {fileID: 21300038, guid: de7ca48a35ee8bc488e9fd500a156df6, type: 3}
  - {fileID: 21300040, guid: de7ca48a35ee8bc488e9fd500a156df6, type: 3}
  - {fileID: 21300042, guid: de7ca48a35ee8bc488e9fd500a156df6, type: 3}
  - {fileID: 21300044, guid: de7ca48a35ee8bc488e9fd500a156df6, type: 3}
  - {fileID: 21300046, guid: de7ca48a35ee8bc488e9fd500a156df6, type: 3}
  - {fileID: 21300048, guid: de7ca48a35ee8bc488e9fd500a156df6, type: 3}
  - {fileID: 21300050, guid: de7ca48a35ee8bc488e9fd500a156df6, type: 3}
  - {fileID: 21300052, guid: de7ca48a35ee8bc488e9fd500a156df6, type: 3}
  - {fileID: 21300054, guid: de7ca48a35ee8bc488e9fd500a156df6, type: 3}
  - {fileID: 21300056, guid: de7ca48a35ee8bc488e9fd500a156df6, type: 3}
  - {fileID: 21300058, guid: de7ca48a35ee8bc488e9fd500a156df6, type: 3}
  - {fileID: 21300060, guid: de7ca48a35ee8bc488e9fd500a156df6, type: 3}
  - {fileID: 21300062, guid: de7ca48a35ee8bc488e9fd500a156df6, type: 3}
  - {fileID: 21300064, guid: de7ca48a35ee8bc488e9fd500a156df6, type: 3}
  - {fileID: 21300066, guid: de7ca48a35ee8bc488e9fd500a156df6, type: 3}
  - {fileID: 21300068, guid: de7ca48a35ee8bc488e9fd500a156df6, type: 3}
  - {fileID: 21300070, guid: de7ca48a35ee8bc488e9fd500a156df6, type: 3}
  - {fileID: 21300072, guid: de7ca48a35ee8bc488e9fd500a156df6, type: 3}
  - {fileID: 21300074, guid: de7ca48a35ee8bc488e9fd500a156df6, type: 3}
  - {fileID: 21300076, guid: de7ca48a35ee8bc488e9fd500a156df6, type: 3}
  - {fileID: 21300078, guid: de7ca48a35ee8bc488e9fd500a156df6, type: 3}
  - {fileID: 21300080, guid: de7ca48a35ee8bc488e9fd500a156df6, type: 3}
  - {fileID: 21300082, guid: de7ca48a35ee8bc488e9fd500a156df6, type: 3}
  - {fileID: 21300084, guid: de7ca48a35ee8bc488e9fd500a156df6, type: 3}
  - {fileID: 21300086, guid: de7ca48a35ee8bc488e9fd500a156df6, type: 3}
  - {fileID: 21300088, guid: de7ca48a35ee8bc488e9fd500a156df6, type: 3}
  - {fileID: 21300090, guid: de7ca48a35ee8bc488e9fd500a156df6, type: 3}
  - {fileID: 21300092, guid: de7ca48a35ee8bc488e9fd500a156df6, type: 3}
  - {fileID: 21300094, guid: de7ca48a35ee8bc488e9fd500a156df6, type: 3}
  cut: []
  onFloor: []
  particles: {fileID: 198000010389254006, guid: 751731fe44c7bb440ac47174d4c4f7cf,
    type: 2}
